{
  "borgbase_repo": "generate:2023-09-06",
  "db_admin_password": "generate:2023-09-06",
  "db_main_password": "generate:2023-09-06",
  "db_read_password": "generate:2023-09-06",
  "secret_key": "generate:2023-09-06",
  "mailer": "generate:2024-02-10",
  "brute_production_secret": "generate:2023-09-06",
  "brute_staging_secret": "generate:2023-09-06",
  "dinocard_production_secret": "generate:2023-09-06",
  "dinocard_staging_secret": "generate:2023-09-06",
  "dinorpg_production_secret": "generate:2023-09-06",
  "dinorpg_staging_secret": "generate:2023-09-06",
  "directquiz_secret": "generate:2023-09-06",
  "emush_production_secret": "generate:2023-09-06",
  "emush_staging_secret": "generate:2023-09-06",
  "epopotamo_production_secret": "generate:2023-09-06",
  "epopotamo_staging_secret": "generate:2023-09-06",
  "eternalfest_production_secret": "generate:2023-09-06",
  "eternalfest_staging_secret": "generate:2023-09-06",
  "kadokadeo_production_secret": "generate:2023-09-06",
  "kadokadeo_staging_secret": "generate:2023-09-06",
  "myhordes_secret": "generate:2023-09-06",
  "neoparc_production_secret": "generate:2023-09-06",
  "neoparc_staging_secret": "generate:2023-09-06",
  "kadokadeo_secret": "generate:2023-09-06",
  "kingdom_production_secret": "generate:2023-09-06",
  "kingdom_staging_secret": "generate:2023-09-06",
  "mjrt_secret": "generate:2023-09-06",
  "wiki_secret": "generate:2023-09-06",
  "twinoid_client_id": "text:379",
  "twinoid_client_key": "generate:2023-09-06",
  "uptrace_dsn": "aead:$katal$v=1$$CKDINoPYP0fYIbXn$vL52CPQK+glV4icAetUFTBwor2f3DoqggqKYdJCHnzHF21Yg46XDyTIQzz52h/ulytJCM69RLWL1xUSGK94Ewy60EyCtk2he/6ZY5fqO"
}
